<svg xmlns="http://www.w3.org/2000/svg" width="510.13" height="512.001" viewBox="0 0 510.13 512.001">
  <g id="file_1_" data-name="file (1)" transform="translate(-0.935)">
    <g id="Group_123" data-name="Group 123">
      <path id="Path_448" data-name="Path 448" d="M511.065,196.528V470.917A41.075,41.075,0,0,1,469.992,512H132.505a41.092,41.092,0,0,1-39.951-31.5l-.165-23.488-.958-139.878V41.084A41.076,41.076,0,0,1,132.505,0H314.538C330.9,0,383.879,45.173,430.711,92.747c42.732,43.422,80.354,88.843,80.354,103.781Z" fill="#ddeafb"/>
      <path id="Path_449" data-name="Path 449" d="M511.065,196.528V297.043c0-.113-.01-.227-.01-.35C507.964,173.36,407.5,167.653,374.649,134.8l56.062-42.052c42.732,43.421,80.354,88.842,80.354,103.78Z" fill="#cbe2ff"/>
      <path id="Path_450" data-name="Path 450" d="M314.532,0H214.017c.113,0,.227.01.35.01C337.7,3.1,343.407,103.564,376.26,136.416l42.052-56.062C374.89,37.622,329.47,0,314.532,0Z" fill="#cbe2ff"/>
      <path id="Path_451" data-name="Path 451" d="M511.064,196.533V213.91a66.259,66.259,0,0,0-66.253-66.253H404.487a41.087,41.087,0,0,1-41.081-41.081V66.253A66.258,66.258,0,0,0,297.154,0h17.377a118.007,118.007,0,0,1,83.433,34.557L476.507,113.1A118,118,0,0,1,511.064,196.533Z" fill="#bed8fb"/>
    </g>
    <g id="Group_124" data-name="Group 124">
      <path id="Path_452" data-name="Path 452" d="M441.7,240.032H160.786a7.726,7.726,0,1,1,0-15.452H441.705a7.726,7.726,0,1,1,0,15.452Z" fill="#617881"/>
      <path id="Path_453" data-name="Path 453" d="M441.7,281.131H160.786a7.726,7.726,0,0,1,0-15.452H441.705a7.726,7.726,0,1,1,0,15.452Z" fill="#617881"/>
      <path id="Path_454" data-name="Path 454" d="M441.7,322.23H160.786a7.726,7.726,0,0,1,0-15.452H441.705a7.726,7.726,0,1,1,0,15.452Z" fill="#617881"/>
      <path id="Path_455" data-name="Path 455" d="M381.166,363.329H160.786a7.726,7.726,0,0,1,0-15.452h220.38a7.726,7.726,0,0,1,0,15.452Z" fill="#617881"/>
      <path id="Path_456" data-name="Path 456" d="M263.981,126.039h-103.2a7.726,7.726,0,0,1,0-15.452h103.2a7.726,7.726,0,1,1,0,15.452Z" fill="#617881"/>
    </g>
    <g id="Group_132" data-name="Group 132">
      <circle id="Ellipse_20" data-name="Ellipse 20" cx="153.34" cy="153.34" r="153.34" transform="translate(0.935 205.313)" fill="#78d0b1"/>
      <path id="Path_457" data-name="Path 457" d="M160.584,511.868c-2.1.089-4.192.13-6.3.13a153.341,153.341,0,1,1,0-306.682c2.112,0,4.208.041,6.3.13a153.34,153.34,0,0,0,0,306.422Z" fill="#61aab7"/>
      <circle id="Ellipse_21" data-name="Ellipse 21" cx="118.041" cy="118.041" r="118.041" transform="translate(36.234 240.612)" fill="#bed8fb"/>
      <path id="Path_458" data-name="Path 458" d="M272.316,358.653A118.043,118.043,0,0,1,154.274,476.7q-5.1,0-10.088-.427a118.047,118.047,0,0,0,0-235.23q4.987-.426,10.088-.427A118.044,118.044,0,0,1,272.316,358.653Z" fill="#fff"/>
      <path id="Path_459" data-name="Path 459" d="M145.018,358.326a7.694,7.694,0,0,1-5.066-1.895l-48.425-42.1a7.726,7.726,0,1,1,10.138-11.662l48.425,42.1a7.726,7.726,0,0,1-5.072,13.557Z" fill="#dd636e"/>
      <path id="Path_460" data-name="Path 460" d="M164.986,360.387a7.728,7.728,0,0,1-3.782-14.469l27.245-15.263A7.726,7.726,0,0,1,196,344.137L168.755,359.4a7.693,7.693,0,0,1-3.769.987Z" fill="#dd636e"/>
      <circle id="Ellipse_22" data-name="Ellipse 22" cx="12.273" cy="12.273" r="12.273" transform="translate(142.002 346.38)" fill="#78d0b1"/>
      <path id="Path_461" data-name="Path 461" d="M154.275,378.652a20,20,0,1,1,20-20A20.022,20.022,0,0,1,154.275,378.652Zm0-24.545a4.546,4.546,0,1,0,4.546,4.547A4.552,4.552,0,0,0,154.275,354.107Z" fill="#61aab7"/>
      <g id="Group_131" data-name="Group 131">
        <g id="Group_125" data-name="Group 125">
          <path id="Path_462" data-name="Path 462" d="M154.27,268.413a7.725,7.725,0,0,1-4.5-14c5.582-3.967,13.512,1.076,12.063,7.864A7.8,7.8,0,0,1,154.27,268.413Z" fill="#5ea5ec"/>
          <path id="Path_463" data-name="Path 463" d="M154.27,464.344a7.727,7.727,0,0,1-4.5-14c5.581-3.984,13.512,1.085,12.063,7.864A7.819,7.819,0,0,1,154.27,464.344Z" fill="#5ea5ec"/>
        </g>
        <g id="Group_126" data-name="Group 126">
          <path id="Path_464" data-name="Path 464" d="M105.295,281.538a7.724,7.724,0,0,1-4.54-13.972c5.707-4.061,13.79,1.216,12.027,8.129A7.792,7.792,0,0,1,105.295,281.538Z" fill="#5ea5ec"/>
          <path id="Path_465" data-name="Path 465" d="M203.255,451.219a7.727,7.727,0,0,1-4.781-13.793c5.536-4.375,13.8.76,12.34,7.651a7.813,7.813,0,0,1-7.559,6.142Z" fill="#5ea5ec"/>
        </g>
        <g id="Group_127" data-name="Group 127">
          <path id="Path_466" data-name="Path 466" d="M69.434,317.4c-7.019,0-10.342-9.035-5.017-13.6a7.727,7.727,0,1,1,5.017,13.6Z" fill="#5ea5ec"/>
          <path id="Path_467" data-name="Path 467" d="M239.115,415.359a7.724,7.724,0,0,1-4.666-13.882c5.7-4.277,13.915,1.12,12.153,8.038a7.8,7.8,0,0,1-7.487,5.844Z" fill="#5ea5ec"/>
        </g>
        <g id="Group_128" data-name="Group 128">
          <path id="Path_468" data-name="Path 468" d="M56.31,366.384c-7.173,0-10.443-9.417-4.749-13.823,5.426-4.2,13.526.546,12.368,7.368A7.816,7.816,0,0,1,56.31,366.384Z" fill="#5ea5ec"/>
          <path id="Path_469" data-name="Path 469" d="M252.239,366.384a7.732,7.732,0,0,1-4.757-13.82c5.581-4.35,13.881.856,12.286,7.782A7.8,7.8,0,0,1,252.239,366.384Z" fill="#5ea5ec"/>
        </g>
        <g id="Group_129" data-name="Group 129">
          <path id="Path_470" data-name="Path 470" d="M105.295,451.219a7.729,7.729,0,0,1-4.54-13.978c5.694-4.116,13.775,1.251,12.027,8.125a7.8,7.8,0,0,1-7.487,5.853Z" fill="#5ea5ec"/>
          <path id="Path_471" data-name="Path 471" d="M203.255,281.538a7.72,7.72,0,1,1,7.531-6.027,7.787,7.787,0,0,1-7.531,6.027Z" fill="#5ea5ec"/>
        </g>
        <g id="Group_130" data-name="Group 130">
          <path id="Path_472" data-name="Path 472" d="M69.434,415.359a7.727,7.727,0,0,1-4.78-13.791c5.622-4.377,13.933.832,12.3,7.81a7.8,7.8,0,0,1-7.523,5.981Z" fill="#5ea5ec"/>
          <path id="Path_473" data-name="Path 473" d="M239.115,317.4a7.729,7.729,0,0,1-4.3-14.154c5.736-3.828,13.485,1.584,11.783,8.3A7.8,7.8,0,0,1,239.115,317.4Z" fill="#5ea5ec"/>
        </g>
      </g>
      <path id="Path_474" data-name="Path 474" d="M154.275,484.421A125.768,125.768,0,1,1,280.043,358.654,125.911,125.911,0,0,1,154.275,484.421Zm0-236.082A110.314,110.314,0,1,0,264.59,358.653,110.44,110.44,0,0,0,154.275,248.339Z" fill="#61aab7"/>
    </g>
  </g>
</svg>
