<svg xmlns="http://www.w3.org/2000/svg" width="512" height="390" viewBox="0 0 512 390">
  <g id="oil" transform="translate(0 -61)">
    <path id="Path_75" data-name="Path 75" d="M180,61v90H390V61ZM300,91v30H270V91Zm-90,0h30v30H210Zm150,30H330V91h30Z" fill="#3e3d42"/>
    <path id="Path_76" data-name="Path 76" d="M256,151H390V61H256Zm74-60h30v30H330Zm-30,0v30H270V91Z" fill="#2d2d30"/>
    <path id="Path_77" data-name="Path 77" d="M512,451H432V356a15.017,15.017,0,0,0-15-15H360V261h67a85.1,85.1,0,0,1,85,85Z" fill="#787680"/>
    <path id="Path_78" data-name="Path 78" d="M0,61v90H150V61ZM30,91H60v30H30Zm90,30H90V91h30Z" fill="#3e3d42"/>
    <path id="Path_79" data-name="Path 79" d="M390,451H0V121H390Z" fill="#ffda44"/>
    <rect id="Rectangle_2" data-name="Rectangle 2" width="134" height="330" transform="translate(256 121)" fill="#ff9811"/>
    <path id="Path_80" data-name="Path 80" d="M281,335.272a42,42,0,0,1-29.7-71.7l29.7-29.7,29.7,29.7a42,42,0,0,1-29.7,71.7Z" fill="#ff5023"/>
    <g id="Group_174" data-name="Group 174">
      <path id="Path_81" data-name="Path 81" d="M210,451H120V121h90Zm-60-30h30V151H150Z" fill="#3e3d42"/>
      <rect id="Rectangle_3" data-name="Rectangle 3" width="90" height="30" transform="translate(120 181)" fill="#3e3d42"/>
      <rect id="Rectangle_4" data-name="Rectangle 4" width="90" height="30" transform="translate(120 241)" fill="#3e3d42"/>
      <rect id="Rectangle_5" data-name="Rectangle 5" width="90" height="30" transform="translate(120 301)" fill="#3e3d42"/>
      <rect id="Rectangle_6" data-name="Rectangle 6" width="90" height="30" transform="translate(120 361)" fill="#3e3d42"/>
    </g>
    <rect id="Rectangle_7" data-name="Rectangle 7" width="512" height="30" transform="translate(0 421)" fill="#a0815c"/>
    <rect id="Rectangle_8" data-name="Rectangle 8" width="256" height="30" transform="translate(256 421)" fill="#6a563d"/>
    <path id="Path_82" data-name="Path 82" d="M281,233.875l-25,25V327.03a42,42,0,0,0,54.7-63.457Z" fill="#cd2a00"/>
  </g>
</svg>
