<svg id="secure-payment" xmlns="http://www.w3.org/2000/svg" width="512" height="512" viewBox="0 0 512 512">
  <g id="Group_54" data-name="Group 54">
    <path id="Path_100" data-name="Path 100" d="M401,0H45A45.055,45.055,0,0,0,0,45V288a45.055,45.055,0,0,0,45,45H401a45.055,45.055,0,0,0,45-45V45A45.055,45.055,0,0,0,401,0Z" fill="#5e69e2"/>
  </g>
  <g id="Group_55" data-name="Group 55">
    <path id="Path_101" data-name="Path 101" d="M446,45V288a45.055,45.055,0,0,1-45,45H289V0H401A45.055,45.055,0,0,1,446,45Z" fill="#006ac1"/>
  </g>
  <g id="Group_56" data-name="Group 56">
    <path id="Path_102" data-name="Path 102" d="M66,168V353a45.055,45.055,0,0,0,45,45H467a45.055,45.055,0,0,0,45-45V168Z" fill="#6ba7ff"/>
  </g>
  <g id="Group_57" data-name="Group 57">
    <path id="Path_103" data-name="Path 103" d="M512,168V353a45.055,45.055,0,0,1-45,45H289V168Z" fill="#5e69e2"/>
  </g>
  <g id="Group_58" data-name="Group 58">
    <path id="Path_104" data-name="Path 104" d="M177,335H145a15,15,0,0,1,0-30h32a15,15,0,0,1,0,30Z" fill="#f2f2fc"/>
  </g>
  <g id="Group_59" data-name="Group 59">
    <path id="Path_105" data-name="Path 105" d="M273,335H241a15,15,0,0,1,0-30h32a15,15,0,0,1,0,30Z" fill="#f2f2fc"/>
  </g>
  <g id="Group_60" data-name="Group 60">
    <path id="Path_106" data-name="Path 106" d="M512,110v58H66V110a45.055,45.055,0,0,1,45-45H467A45.055,45.055,0,0,1,512,110Z" fill="#00e4ef"/>
  </g>
  <g id="Group_61" data-name="Group 61">
    <path id="Path_107" data-name="Path 107" d="M512,110v58H289V65H467A45.055,45.055,0,0,1,512,110Z" fill="#6ba7ff"/>
  </g>
  <g id="Group_62" data-name="Group 62">
    <path id="Path_108" data-name="Path 108" d="M256,215H144a15,15,0,0,1-15-15V136a15,15,0,0,1,15-15H256a15,15,0,0,1,15,15v64A15,15,0,0,1,256,215Z" fill="#ffdf40"/>
  </g>
  <g id="Group_63" data-name="Group 63">
    <path id="Path_109" data-name="Path 109" d="M497,250h-1.52A157.9,157.9,0,0,1,394.6,213.48a14.981,14.981,0,0,0-19.2,0A157.9,157.9,0,0,1,274.52,250H273a15.005,15.005,0,0,0-15,15v83.52a169.412,169.412,0,0,0,122.88,162.9,14.923,14.923,0,0,0,8.24,0A169.412,169.412,0,0,0,512,348.52V265A15.005,15.005,0,0,0,497,250Z" fill="#ace233"/>
  </g>
  <g id="Group_64" data-name="Group 64">
    <path id="Path_110" data-name="Path 110" d="M512,265v83.52a169.412,169.412,0,0,1-122.88,162.9A14.8,14.8,0,0,1,385,512V210a14.954,14.954,0,0,1,9.6,3.48A157.9,157.9,0,0,0,495.48,250H497a15.005,15.005,0,0,1,15,15Z" fill="#65cc3a"/>
  </g>
  <g id="Group_65" data-name="Group 65">
    <path id="Path_111" data-name="Path 111" d="M457.61,334.61l-62,62a15.016,15.016,0,0,1-21.22,0l-32-32a15,15,0,0,1,21.22-21.22L385,364.79l51.39-51.4a15,15,0,0,1,21.22,21.22Z" fill="#f2f2fc"/>
  </g>
  <g id="Group_66" data-name="Group 66">
    <path id="Path_112" data-name="Path 112" d="M457.61,334.61l-62,62A14.953,14.953,0,0,1,385,401V364.79l51.39-51.4a15,15,0,0,1,21.22,21.22Z" fill="#d6d6f2"/>
  </g>
</svg>
