<svg xmlns="http://www.w3.org/2000/svg" width="512" height="375.466" viewBox="0 0 512 375.466">
  <g id="delivery-truck" transform="translate(0 -68.267)">
    <path id="Path_1" data-name="Path 1" d="M309.333,390.4H26.667C11.733,390.4,0,377.6,0,362.667V94.933A26.407,26.407,0,0,1,26.667,68.267h256a26.408,26.408,0,0,1,26.667,26.667V390.4Z" fill="#ffd15c"/>
    <path id="Path_2" data-name="Path 2" d="M504.533,217.6l-68.267-68.267c-4.267-4.267-10.667-7.467-17.067-7.467H309.333V390.4H484.266C499.2,390.4,512,377.6,512,362.667v-128C512,227.2,509.867,221.867,504.533,217.6Z" fill="#f3705a"/>
    <path id="Path_3" data-name="Path 3" d="M0,343.467v19.2a26.408,26.408,0,0,0,26.667,26.667h457.6c14.933,0,27.733-12.8,27.733-27.733V342.4H0Z" fill="#344a5e"/>
    <g id="Group_1" data-name="Group 1">
      <path id="Path_4" data-name="Path 4" d="M475.733,272V238.933l-60.8-61.866H345.6V272Z" fill="#415a6b"/>
      <circle id="Ellipse_1" data-name="Ellipse 1" cx="66.133" cy="66.133" r="66.133" transform="translate(64 311.467)" fill="#415a6b"/>
    </g>
    <circle id="Ellipse_2" data-name="Ellipse 2" cx="32" cy="32" r="32" transform="translate(98.133 345.6)" fill="#e8eae9"/>
    <circle id="Ellipse_3" data-name="Ellipse 3" cx="66.133" cy="66.133" r="66.133" transform="translate(332.8 311.467)" fill="#415a6b"/>
    <circle id="Ellipse_4" data-name="Ellipse 4" cx="32" cy="32" r="32" transform="translate(366.933 345.6)" fill="#e8eae9"/>
    <g id="Group_2" data-name="Group 2">
      <path id="Path_5" data-name="Path 5" d="M67.2,113.067h0a23.676,23.676,0,0,0-23.467,23.467v137.6A23.676,23.676,0,0,0,67.2,297.6h0a23.676,23.676,0,0,0,23.467-23.467v-137.6C89.6,123.733,80,113.067,67.2,113.067Z" fill="#f7b64c"/>
      <path id="Path_6" data-name="Path 6" d="M153.6,113.067h0a23.676,23.676,0,0,0-23.467,23.467v137.6A23.676,23.676,0,0,0,153.6,297.6h0a23.676,23.676,0,0,0,23.467-23.467v-137.6C176,123.733,166.4,113.067,153.6,113.067Z" fill="#f7b64c"/>
      <path id="Path_7" data-name="Path 7" d="M240,113.067h0a23.676,23.676,0,0,0-23.467,23.467v137.6A23.676,23.676,0,0,0,240,297.6h0a23.676,23.676,0,0,0,23.467-23.467v-137.6C262.4,123.733,252.8,113.067,240,113.067Z" fill="#f7b64c"/>
    </g>
  </g>
</svg>
